[api-updater (non-obsolete-error-filter)] 3/17/2022 10:04:33 PM : Starting D:/Unity Hub/Editor/2020.3.28f1/Editor/Data/Tools/ScriptUpdater/APIUpdater.NonObsoleteApiUpdaterDetector.exe
[api-updater (non-obsolete-error-filter)] 
----------------------------------
jit/startup time      : 1477.6208ms
moved types parse time: 74ms
candidates parse time : 1ms
C# parse time         : 894ms
candidates check time : 50ms
console write time    : 1ms

[api-updater (non-obsolete-error-filter)] 3/17/2022 10:10:09 PM : Starting D:/Unity Hub/Editor/2020.3.28f1/Editor/Data/Tools/ScriptUpdater/APIUpdater.NonObsoleteApiUpdaterDetector.exe
[api-updater (non-obsolete-error-filter)] 
----------------------------------
jit/startup time      : 90.1194ms
moved types parse time: 51ms
candidates parse time : 1ms
C# parse time         : 201ms
candidates check time : 42ms
console write time    : 0ms

